ctfs/PatriotCTF/2024/misc/RTL_Warm_up/flag.vcd
$timescale 1 ps $end
$scope module uut $end
$var wire 1 ! clock $end
$var wire 8 " dout $end
$var wire 8 # din $end
$upscope $end
$enddefinitions $end
$dumpvars
0!
b01010000 "
b01010000 #
$end
#50000000
1!
#50000000
#100000000
0!
#100000000
b01000011 "
b01000011 #
#150000000
1!
#150000000
#200000000
0!
#200000000
b01010100 "
b01010100 #
#250000000
1!
#250000000
#300000000
0!
#300000000
b01000110 "
b01000110 #
#350000000
1!
#350000000
#400000000
0!
#400000000
b01111011 "
b01111011 #
#450000000
1!
#450000000
#500000000
0!
#500000000
b01010010 "
b01010010 #
#550000000
1!
#550000000
#600000000
0!
#600000000
b01010100 "
b01010100 #
#650000000
1!
#650000000
#700000000
0!
#700000000
b01001100 "
b01001100 #
#750000000
1!
#750000000
#800000000
0!
#800000000
b01011111 "
b01011111 #
#850000000
1!
#850000000
#900000000
0!
#900000000
b01101001 "
b01101001 #
#950000000
1!
#950000000
#1000000000
0!
#1000000000
b00100100 "
b00100100 #
#1050000000
1!
#1050000000
#1100000000
0!
#1100000000
b01011111 "
b01011111 #
#1150000000
1!
#1150000000
#1200000000
0!
#1200000000
b01000100 "
b01000100 #
#1250000000
1!
#1250000000
#1300000000
0!
#1300000000
b01000000 "
b01000000 #
#1350000000
1!
#1350000000
#1400000000
0!
#1400000000
b01000100 "
b01000100 #
#1450000000
1!
#1450000000
#1500000000
0!
#1500000000
b01011111 "
b01011111 #
#1550000000
1!
#1550000000
#1600000000
0!
#1600000000
b00110000 "
b00110000 #
#1650000000
1!
#1650000000
#1700000000
0!
#1700000000
b01000110 "
b01000110 #
#1750000000
1!
#1750000000
#1800000000
0!
#1800000000
b01011111 "
b01011111 #
#1850000000
1!
#1850000000
#1900000000
0!
#1900000000
b01001000 "
b01001000 #
#1950000000
1!
#1950000000
#2000000000
0!
#2000000000
b01000000 "
b01000000 #
#2050000000
1!
#2050000000
#2100000000
0!
#2100000000
b01110010 "
b01110010 #
#2150000000
1!
#2150000000
#2200000000
0!
#2200000000
b01100100 "
b01100100 #
#2250000000
1!
#2250000000
#2300000000
0!
#2300000000
b01110111 "
b01110111 #
#2350000000
1!
#2350000000
#2400000000
0!
#2400000000
b01000000 "
b01000000 #
#2450000000
1!
#2450000000
#2500000000
0!
#2500000000
b01110010 "
b01110010 #
#2550000000
1!
#2550000000
#2600000000
0!
#2600000000
b00110011 "
b00110011 #
#2650000000
1!
#2650000000
#2700000000
0!
#2700000000
b01111101 "
b01111101 #
