ctfs/CrateCTF/2025/misc/Deserialization/trace.vcd
$date Tue Jul  1 15:47:59 2025 $end
$timescale 1ns $end
$scope module logic $end
$var wire 1 ! RX $end
$upscope $end
$enddefinitions $end
#0
1!
#104166
0!
#208332
1!
#312498
1!
#416664
0!
#520830
0!
#624996
0!
#729162
1!
#833328
1!
#937494
0!
#1041660
1!
#1145826
0!
#1249992
0!
#1354158
1!
#1458324
0!
#1562490
0!
#1666656
1!
#1770822
1!
#1874988
1!
#1979154
0!
#2083320
1!
#2187486
0!
#2291652
1!
#2395818
0!
#2499984
0!
#2604150
0!
#2708316
0!
#2812482
1!
#2916648
1!
#3020814
0!
#3124980
1!
#3229146
0!
#3333312
0!
#3437478
0!
#3541644
1!
#3645810
0!
#3749976
1!
#3854142
1!
#3958308
1!
#4062474
0!
#4166640
1!
#4270806
0!
#4374972
1!
#4479138
0!
#4583304
1!
#4687470
0!
#4791636
0!
#4895802
1!
#4999968
1!
#5104134
0!
#5208300
1!
#5312466
0!
#5416632
1!
#5520798
1!
#5624964
0!
#5729130
0!
#5833296
0!
#5937462
1!
#6041628
1!
#6145794
0!
#6249960
1!
#6354126
0!
#6458292
0!
#6562458
0!
#6666624
1!
#6770790
0!
#6874956
1!
#6979122
1!
#7083288
1!
#7187454
0!
#7291620
1!
#7395786
0!
#7499952
0!
#7604118
1!
#7708284
1!
#7812450
0!
#7916616
0!
#8020782
1!
#8124948
1!
#8229114
0!
#8333280
1!
#8437446
0!
#8541612
1!
#8645778
1!
#8749944
0!
#8854110
1!
#8958276
1!
#9062442
1!
#9166608
1!
#9270774
0!
#9374940
1!
#9479106
0!
#9583272
1!
#9687438
0!
#9791604
1!
#9895770
0!
#9999936
0!
#10104102
1!
#10208268
1!
#10312434
0!
#10416600
1!
#10520766
0!
#10624932
0!
#10729098
0!
#10833264
1!
#10937430
0!
#11041596
1!
#11145762
1!
#11249928
1!
#11354094
0!
#11458260
1!
#11562426
0!
#11666592
0!
#11770758
0!
#11874924
1!
#11979090
0!
#12083256
1!
#12187422
1!
#12291588
1!
#12395754
0!
#12499920
1!
#12604086
0!
#12708252
1!
#12812418
1!
#12916584
1!
#13020750
1!
#13124916
1!
#13229082
0!
#13333248
1!
#13437414
0!
#13541580
1!
#13645746
0!
#13749912
0!
#13854078
0!
#13958244
1!
#14062410
0!
#14166576
1!
#14270742
1!
#14374908
1!
#14479074
0!
#14583240
1!
#14687406
0!
#14791572
1!
#14895738
0!
#14999904
1!
#15104070
0!
#15208236
0!
#15312402
1!
#15416568
1!
#15520734
0!
#15624900
1!
#15729066
0!
#15833232
1!
#15937398
1!
#16041564
0!
#16145730
0!
#16249896
0!
#16354062
1!
#16458228
1!
#16562394
0!
#16666560
1!
#16770726
0!
#16874892
1!
#16979058
1!
#17083224
0!
#17187390
1!
#17291556
0!
#17395722
1!
#17499888
1!
#17604054
0!
#17708220
1!
#17812386
0!
#17916552
1!
#18020718
0!
#18124884
1!
#18229050
0!
#18333216
0!
#18437382
1!
#18541548
1!
#18645714
0!
#18749880
1!
#18854046
0!
#18958212
0!
#19062378
1!
#19166544
1!
#19270710
1!
#19374876
0!
#19479042
1!
#19583208
1!
#19687374
0!
#19791540
1!
#19895706
0!
#19999872
1!
#20104038
1!
#20208204
1!
#20312370
1!
#20416536
1!
#20520702
0!
#20624868
1!
#20729034
0!
#20833200
1!
#20937366
0!
#21041532
1!
#21145698
0!
#21249864
0!
#21354030
1!
#21458196
0!
#21562362
1!
#21666528
1!
#21770694
0!
#21874860
1!
#21979026
0!
#22083192
1!
#22187358
1!
#22291524
1!
#22395690
1!
#22499856
1!
#22604022
0!
#22708188
1!
#22812354
0!
#22916520
1!
#23020686
0!
#23124852
0!
#23229018
0!
#23333184
1!
#23437350
0!
#23541516
1!
#23645682
1!
#23749848
1!
#23854014
0!
#23958180
1!
#24062346
0!
#24166512
1!
#24270678
0!
#24374844
0!
#24479010
0!
#24583176
0!
#24687342
1!
#24791508
1!
#24895674
0!
#24999840
1!
#25104006
0!
#25208172
1!
#25312338
1!
#25416504
1!
#25520670
0!
#25624836
0!
#25729002
1!
#25833168
1!
#25937334
0!
#26041500
1!
#26145666
0!
#26249832
1!
#26353998
0!
#26458164
1!
#26562330
0!
#26666496
0!
#26770662
1!
#26874828
1!
#26978994
0!
#27083160
1!
#27187326
0!
#27291492
0!
#27395658
0!
#27499824
1!
#27603990
0!
#27708156
1!
#27812322
1!
#27916488
1!
#28020654
0!
#28124820
1!
#28228986
0!
#28333152
1!
#28437318
0!
#28541484
1!
#28645650
1!
#28749816
1!
#28853982
1!
#28958148
1!
#29062314
0!
#29166480
1!
#29270646
1!
